<?xml version="1.0" encoding="utf-8"?>
<!-- Generator: Adobe Illustrator 23.0.6, SVG Export Plug-In . SVG Version: 6.00 Build 0)  -->
<svg version="1.1" id="Layer_1" xmlns="http://www.w3.org/2000/svg" xmlns:xlink="http://www.w3.org/1999/xlink" x="0px" y="0px"
	 width="417px" height="417px" viewBox="0 0 417 417" style="enable-background:new 0 0 417 417;" xml:space="preserve">
<style type="text/css">
	.st0{fill:#0069A5;}
</style>
<g>
	<rect x="61" y="61" transform="matrix(0.7071 -0.7071 0.7071 0.7071 -85.9493 207.5)" class="st0" width="293" height="293"/>
</g>
</svg>
